[gd_scene load_steps=6 format=2]

[ext_resource path="res://Nivel.gd" type="Script" id=1]
[ext_resource path="res://Jugador.tscn" type="PackedScene" id=2]
[ext_resource path="res://Helipuerto.tscn" type="PackedScene" id=3]
[ext_resource path="res://Isla-02.tscn" type="PackedScene" id=4]
[ext_resource path="res://Isla-01.tscn" type="PackedScene" id=5]

[node name="Nivel" type="Node2D"]

position = Vector2( 0, -2 )
script = ExtResource( 1 )
current_level = 1

[node name="Player" parent="." index="0" instance=ExtResource( 2 )]

position = Vector2( 124.261, 194.478 )
z_index = 1
_sections_unfolded = [ "Visibility", "Z Index" ]

[node name="Isla" parent="." index="1" instance=ExtResource( 3 )]

position = Vector2( 32.0403, 193.928 )

[node name="Isla3" parent="." index="2" instance=ExtResource( 3 )]

position = Vector2( 223.97, 194.006 )

[node name="Isla5" parent="." index="3" instance=ExtResource( 4 )]

position = Vector2( 125.117, 39.5488 )

[node name="Isla7" parent="." index="4" instance=ExtResource( 5 )]

position = Vector2( 134.753, 102.326 )

[node name="Isla4" parent="." index="5" instance=ExtResource( 5 )]

position = Vector2( 24.6739, 65.5931 )
initial_ppl = 1

[node name="Isla6" parent="." index="6" instance=ExtResource( 5 )]

position = Vector2( 231.985, 23.6069 )
_sections_unfolded = [ "Collision", "Pickable", "Transform", "Visibility" ]
ttl = 7
initial_ppl = 1


